7 Raster data and geostatistics | GEOG0114: Principles of Spatial Analysis
…
Oof. That is quite a large data set. Let’s quickly make it more useable by aggregating the data and get the average NO2 value for each monitoring site. Let’s also make sure that we retain the latitude and longitude of our monitoring sites.

# aggregate data to unique latitude and longitude combinations, remove monitoring sites without coordinates
avg_pol <- pollution %>% group_by(latitude,longitude) %>% 
                         summarise(no2=mean(no2)) %>% 
                         filter(!is.na(latitude | longitude))

# inspect
avg_pol

## # A tibble: 192 x 3
## # Groups:   latitude [192]
##    latitude longitude   no2
##       <dbl>     <dbl> <dbl>
##  1     49.8    -7.56  35.6 
##  2     50.4    -4.14  17.5 
##  3     50.7    -1.83  11.5 
##  4     50.8     0.284 15.7 
##  5     50.8     0.181  7.23
##  6     50.8     0.272 11.4 
##  7     50.8    -0.782 27.8 
##  8     50.8    -1.07  17.3 
##  9     50.8    -0.277 25.8 
## 10     50.8    -0.380 33.0 
## # … with 182 more rows
…
